top_tb.vcd
$date
	Fri Jul 04 11:44:19 2025
$end
$version
	Icarus Verilog
$end
$timescale
	1ps
$end
$scope module top_tb $end
$var wire 1 ! st $end
$var wire 51 " nout [50:0] $end
$var reg 24 # D [23:0] $end
$var reg 8 $ WA [7:0] $end
$var reg 1 % acm_en $end
$var reg 1 & cima $end
$var reg 1 ' clk $end
$var reg 1 ( inwidth $end
$var reg 1 ) rstn $end
$var reg 1 * wwidth $end
$var reg 96 + xin0 [95:0] $end
$scope module top_u $end
$var wire 24 , D [23:0] $end
$var wire 8 - WA [7:0] $end
$var wire 1 % acm_en $end
$var wire 1 & cima $end
$var wire 1 ' clk $end
$var wire 1 ( inwidth $end
$var wire 1 ) rstn $end
$var wire 1 * wwidth $end
$var wire 96 . xin0 [95:0] $end
$var wire 96 / wb1_b [95:0] $end
$var wire 96 0 wb1_a [95:0] $end
$var wire 96 1 wb0_b [95:0] $end
$var wire 96 2 wb0_a [95:0] $end
$var wire 1 ! st $end
$var wire 6 3 sel [5:0] $end
$var wire 8 4 rwlb_row1 [7:0] $end
$var wire 8 5 rwlb_row0 [7:0] $end
$var wire 51 6 nout [50:0] $end
$var wire 15 7 macout_b [14:0] $end
$var wire 15 8 macout_a [14:0] $end
$var wire 8 9 WA1 [7:0] $end
$var wire 8 : WA0 [7:0] $end
$var wire 24 ; D1 [23:0] $end
$scope module cim_array_ctrl_u $end
$var wire 24 < D [23:0] $end
$var wire 8 = WA [7:0] $end
$var wire 1 & cima $end
$var wire 1 ' clk $end
$var wire 1 ) rstn $end
$var reg 24 > D1 [23:0] $end
$var reg 8 ? WA0 [7:0] $end
$var reg 8 @ WA1 [7:0] $end
$upscope $end
$scope module cim_array_u $end
$var wire 24 A D1 [23:0] $end
$var wire 8 B WA0 [7:0] $end
$var wire 8 C WA1 [7:0] $end
$var wire 96 D wb1_b [95:0] $end
$var wire 96 E wb1_a [95:0] $end
$var wire 96 F wb0_b [95:0] $end
$var wire 96 G wb0_a [95:0] $end
$scope module cim_bank_0 $end
$var wire 24 H D [23:0] $end
$var wire 8 I WA [7:0] $end
$var reg 96 J WB_a [95:0] $end
$var reg 96 K WB_b [95:0] $end
$upscope $end
$scope module cim_bank_1 $end
$var wire 24 L D [23:0] $end
$var wire 8 M WA [7:0] $end
$var reg 96 N WB_a [95:0] $end
$var reg 96 O WB_b [95:0] $end
$upscope $end
$upscope $end
$scope module gctrl_u $end
$var wire 1 ' clk $end
$var wire 1 ( inwidth $end
$var wire 1 ) rstn $end
$var reg 6 P count [5:0] $end
$var reg 6 Q sel [5:0] $end
$var reg 1 ! st $end
$upscope $end
$scope module global_io_u $end
$var wire 1 % acm_en $end
$var wire 27 R c1 [26:0] $end
$var wire 1 ' clk $end
$var wire 1 ) rstn $end
$var wire 1 ! st $end
$var wire 1 * wwidth $end
$var wire 28 S out [27:0] $end
$var wire 51 T nout [50:0] $end
$var wire 15 U macout_b [14:0] $end
$var wire 15 V macout_a [14:0] $end
$var reg 15 W in_a [14:0] $end
$var reg 27 X in_b [26:0] $end
$scope module a2 $end
$var wire 27 Y a [26:0] $end
$var wire 27 Z b [26:0] $end
$var wire 1 [ sus $end
$var parameter 32 \ width $end
$var reg 28 ] s [27:0] $end
$upscope $end
$scope module acc1 $end
$var wire 51 ^ acc_in [50:0] $end
$var wire 1 % acm_en $end
$var wire 1 ' clk $end
$var wire 27 _ in1 [26:0] $end
$var wire 1 ) rstn $end
$var wire 1 ! st $end
$var wire 51 ` nout [50:0] $end
$var reg 51 a nout_1 [50:0] $end
$scope module secla1 $end
$var wire 27 b a [26:0] $end
$var wire 51 c b [50:0] $end
$var wire 28 d sm [27:0] $end
$var wire 24 e s1 [23:0] $end
$var wire 51 f s [50:0] $end
$scope module a1 $end
$var wire 27 g a [26:0] $end
$var wire 27 h b [26:0] $end
$var wire 1 i sus $end
$var parameter 32 j width $end
$var reg 28 k s [27:0] $end
$upscope $end
$scope module scla1 $end
$var wire 24 l G [23:0] $end
$var wire 24 m P [23:0] $end
$var wire 24 n a [23:0] $end
$var wire 24 o b [23:0] $end
$var wire 1 p ci $end
$var wire 1 q co $end
$var wire 24 r s [23:0] $end
$var wire 24 s C [23:0] $end
$scope begin genblk1[1] $end
$var parameter 2 t i $end
$upscope $end
$scope begin genblk1[2] $end
$var parameter 3 u i $end
$upscope $end
$scope begin genblk1[3] $end
$var parameter 3 v i $end
$upscope $end
$scope begin genblk1[4] $end
$var parameter 4 w i $end
$upscope $end
$scope begin genblk1[5] $end
$var parameter 4 x i $end
$upscope $end
$scope begin genblk1[6] $end
$var parameter 4 y i $end
$upscope $end
$scope begin genblk1[7] $end
$var parameter 4 z i $end
$upscope $end
$scope begin genblk1[8] $end
$var parameter 5 { i $end
$upscope $end
$scope begin genblk1[9] $end
$var parameter 5 | i $end
$upscope $end
$scope begin genblk1[10] $end
$var parameter 5 } i $end
$upscope $end
$scope begin genblk1[11] $end
$var parameter 5 ~ i $end
$upscope $end
$scope begin genblk1[12] $end
$var parameter 5 !" i $end
$upscope $end
$scope begin genblk1[13] $end
$var parameter 5 "" i $end
$upscope $end
$scope begin genblk1[14] $end
$var parameter 5 #" i $end
$upscope $end
$scope begin genblk1[15] $end
$var parameter 5 $" i $end
$upscope $end
$scope begin genblk1[16] $end
$var parameter 6 %" i $end
$upscope $end
$scope begin genblk1[17] $end
$var parameter 6 &" i $end
$upscope $end
$scope begin genblk1[18] $end
$var parameter 6 '" i $end
$upscope $end
$scope begin genblk1[19] $end
$var parameter 6 (" i $end
$upscope $end
$scope begin genblk1[20] $end
$var parameter 6 )" i $end
$upscope $end
$scope begin genblk1[21] $end
$var parameter 6 *" i $end
$upscope $end
$scope begin genblk1[22] $end
$var parameter 6 +" i $end
$upscope $end
$scope begin genblk1[23] $end
$var parameter 6 ," i $end
$upscope $end
$upscope $end
$upscope $end
$upscope $end
$upscope $end
$scope module lmaca $end
$var wire 1 -" sus $end
$var wire 96 ." wb0 [95:0] $end
$var wire 96 /" wb1 [95:0] $end
$var wire 8 0" rwlb_row1 [7:0] $end
$var wire 8 1" rwlb_row0 [7:0] $end
$var wire 15 2" mac_out [14:0] $end
$scope begin genblk1[0] $end
$var parameter 2 3" idx $end
$upscope $end
$scope begin genblk1[1] $end
$var parameter 2 4" idx $end
$upscope $end
$scope begin genblk1[2] $end
$var parameter 3 5" idx $end
$upscope $end
$scope begin genblk1[3] $end
$var parameter 3 6" idx $end
$upscope $end
$scope begin genblk1[4] $end
$var parameter 4 7" idx $end
$upscope $end
$scope begin genblk1[5] $end
$var parameter 4 8" idx $end
$upscope $end
$scope begin genblk1[6] $end
$var parameter 4 9" idx $end
$upscope $end
$scope begin genblk1[7] $end
$var parameter 4 :" idx $end
$upscope $end
$scope begin genblk3[0] $end
$var parameter 2 ;" i $end
$scope module a1 $end
$var wire 1 -" sus $end
$var wire 12 <" b [11:0] $end
$var wire 12 =" a [11:0] $end
$var parameter 32 >" width $end
$var reg 13 ?" s [12:0] $end
$upscope $end
$upscope $end
$scope begin genblk3[1] $end
$var parameter 2 @" i $end
$scope module a1 $end
$var wire 1 -" sus $end
$var wire 12 A" b [11:0] $end
$var wire 12 B" a [11:0] $end
$var parameter 32 C" width $end
$var reg 13 D" s [12:0] $end
$upscope $end
$upscope $end
$scope begin genblk3[2] $end
$var parameter 3 E" i $end
$scope module a1 $end
$var wire 1 -" sus $end
$var wire 12 F" b [11:0] $end
$var wire 12 G" a [11:0] $end
$var parameter 32 H" width $end
$var reg 13 I" s [12:0] $end
$upscope $end
$upscope $end
$scope begin genblk3[3] $end
$var parameter 3 J" i $end
$scope module a1 $end
$var wire 1 -" sus $end
$var wire 12 K" b [11:0] $end
$var wire 12 L" a [11:0] $end
$var parameter 32 M" width $end
$var reg 13 N" s [12:0] $end
$upscope $end
$upscope $end
$scope begin genblk4[0] $end
$var parameter 2 O" i $end
$scope module a2 $end
$var wire 13 P" a [12:0] $end
$var wire 13 Q" b [12:0] $end
$var wire 1 -" sus $end
$var parameter 32 R" width $end
$var reg 14 S" s [13:0] $end
$upscope $end
$upscope $end
$scope begin genblk4[1] $end
$var parameter 2 T" i $end
$scope module a2 $end
$var wire 13 U" a [12:0] $end
$var wire 13 V" b [12:0] $end
$var wire 1 -" sus $end
$var parameter 32 W" width $end
$var reg 14 X" s [13:0] $end
$upscope $end
$upscope $end
$scope begin mult_array[0] $end
$var parameter 2 Y" j $end
$scope module m1 $end
$var wire 12 Z" a [11:0] $end
$var wire 12 [" a1 [11:0] $end
$var wire 12 \" a2 [11:0] $end
$var wire 12 ]" b [11:0] $end
$var wire 1 ^" c $end
$var wire 1 _" d $end
$var wire 12 `" e [11:0] $end
$upscope $end
$upscope $end
$scope begin mult_array[1] $end
$var parameter 2 a" j $end
$scope module m1 $end
$var wire 12 b" a [11:0] $end
$var wire 12 c" a1 [11:0] $end
$var wire 12 d" a2 [11:0] $end
$var wire 12 e" b [11:0] $end
$var wire 1 f" c $end
$var wire 1 g" d $end
$var wire 12 h" e [11:0] $end
$upscope $end
$upscope $end
$scope begin mult_array[2] $end
$var parameter 3 i" j $end
$scope module m1 $end
$var wire 12 j" a [11:0] $end
$var wire 12 k" a1 [11:0] $end
$var wire 12 l" a2 [11:0] $end
$var wire 12 m" b [11:0] $end
$var wire 1 n" c $end
$var wire 1 o" d $end
$var wire 12 p" e [11:0] $end
$upscope $end
$upscope $end
$scope begin mult_array[3] $end
$var parameter 3 q" j $end
$scope module m1 $end
$var wire 12 r" a [11:0] $end
$var wire 12 s" a1 [11:0] $end
$var wire 12 t" a2 [11:0] $end
$var wire 12 u" b [11:0] $end
$var wire 1 v" c $end
$var wire 1 w" d $end
$var wire 12 x" e [11:0] $end
$upscope $end
$upscope $end
$scope begin mult_array[4] $end
$var parameter 4 y" j $end
$scope module m1 $end
$var wire 12 z" a [11:0] $end
$var wire 12 {" a1 [11:0] $end
$var wire 12 |" a2 [11:0] $end
$var wire 12 }" b [11:0] $end
$var wire 1 ~" c $end
$var wire 1 !# d $end
$var wire 12 "# e [11:0] $end
$upscope $end
$upscope $end
$scope begin mult_array[5] $end
$var parameter 4 ## j $end
$scope module m1 $end
$var wire 12 $# a [11:0] $end
$var wire 12 %# a1 [11:0] $end
$var wire 12 &# a2 [11:0] $end
$var wire 12 '# b [11:0] $end
$var wire 1 (# c $end
$var wire 1 )# d $end
$var wire 12 *# e [11:0] $end
$upscope $end
$upscope $end
$scope begin mult_array[6] $end
$var parameter 4 +# j $end
$scope module m1 $end
$var wire 12 ,# a [11:0] $end
$var wire 12 -# a1 [11:0] $end
$var wire 12 .# a2 [11:0] $end
$var wire 12 /# b [11:0] $end
$var wire 1 0# c $end
$var wire 1 1# d $end
$var wire 12 2# e [11:0] $end
$upscope $end
$upscope $end
$scope begin mult_array[7] $end
$var parameter 4 3# j $end
$scope module m1 $end
$var wire 12 4# a [11:0] $end
$var wire 12 5# a1 [11:0] $end
$var wire 12 6# a2 [11:0] $end
$var wire 12 7# b [11:0] $end
$var wire 1 8# c $end
$var wire 1 9# d $end
$var wire 12 :# e [11:0] $end
$upscope $end
$upscope $end
$scope module a8 $end
$var wire 1 -" sus $end
$var wire 14 ;# b [13:0] $end
$var wire 14 <# a [13:0] $end
$var parameter 32 =# width $end
$var reg 15 ># s [14:0] $end
$upscope $end
$upscope $end
$scope module lmacb $end
$var wire 1 ?# sus $end
$var wire 96 @# wb0 [95:0] $end
$var wire 96 A# wb1 [95:0] $end
$var wire 8 B# rwlb_row1 [7:0] $end
$var wire 8 C# rwlb_row0 [7:0] $end
$var wire 15 D# mac_out [14:0] $end
$scope begin genblk1[0] $end
$var parameter 2 E# idx $end
$upscope $end
$scope begin genblk1[1] $end
$var parameter 2 F# idx $end
$upscope $end
$scope begin genblk1[2] $end
$var parameter 3 G# idx $end
$upscope $end
$scope begin genblk1[3] $end
$var parameter 3 H# idx $end
$upscope $end
$scope begin genblk1[4] $end
$var parameter 4 I# idx $end
$upscope $end
$scope begin genblk1[5] $end
$var parameter 4 J# idx $end
$upscope $end
$scope begin genblk1[6] $end
$var parameter 4 K# idx $end
$upscope $end
$scope begin genblk1[7] $end
$var parameter 4 L# idx $end
$upscope $end
$scope begin genblk3[0] $end
$var parameter 2 M# i $end
$scope module a1 $end
$var wire 1 ?# sus $end
$var wire 12 N# b [11:0] $end
$var wire 12 O# a [11:0] $end
$var parameter 32 P# width $end
$var reg 13 Q# s [12:0] $end
$upscope $end
$upscope $end
$scope begin genblk3[1] $end
$var parameter 2 R# i $end
$scope module a1 $end
$var wire 1 ?# sus $end
$var wire 12 S# b [11:0] $end
$var wire 12 T# a [11:0] $end
$var parameter 32 U# width $end
$var reg 13 V# s [12:0] $end
$upscope $end
$upscope $end
$scope begin genblk3[2] $end
$var parameter 3 W# i $end
$scope module a1 $end
$var wire 1 ?# sus $end
$var wire 12 X# b [11:0] $end
$var wire 12 Y# a [11:0] $end
$var parameter 32 Z# width $end
$var reg 13 [# s [12:0] $end
$upscope $end
$upscope $end
$scope begin genblk3[3] $end
$var parameter 3 \# i $end
$scope module a1 $end
$var wire 1 ?# sus $end
$var wire 12 ]# b [11:0] $end
$var wire 12 ^# a [11:0] $end
$var parameter 32 _# width $end
$var reg 13 `# s [12:0] $end
$upscope $end
$upscope $end
$scope begin genblk4[0] $end
$var parameter 2 a# i $end
$scope module a2 $end
$var wire 13 b# a [12:0] $end
$var wire 13 c# b [12:0] $end
$var wire 1 ?# sus $end
$var parameter 32 d# width $end
$var reg 14 e# s [13:0] $end
$upscope $end
$upscope $end
$scope begin genblk4[1] $end
$var parameter 2 f# i $end
$scope module a2 $end
$var wire 13 g# a [12:0] $end
$var wire 13 h# b [12:0] $end
$var wire 1 ?# sus $end
$var parameter 32 i# width $end
$var reg 14 j# s [13:0] $end
$upscope $end
$upscope $end
$scope begin mult_array[0] $end
$var parameter 2 k# j $end
$scope module m1 $end
$var wire 12 l# a [11:0] $end
$var wire 12 m# a1 [11:0] $end
$var wire 12 n# a2 [11:0] $end
$var wire 12 o# b [11:0] $end
$var wire 1 p# c $end
$var wire 1 q# d $end
$var wire 12 r# e [11:0] $end
$upscope $end
$upscope $end
$scope begin mult_array[1] $end
$var parameter 2 s# j $end
$scope module m1 $end
$var wire 12 t# a [11:0] $end
$var wire 12 u# a1 [11:0] $end
$var wire 12 v# a2 [11:0] $end
$var wire 12 w# b [11:0] $end
$var wire 1 x# c $end
$var wire 1 y# d $end
$var wire 12 z# e [11:0] $end
$upscope $end
$upscope $end
$scope begin mult_array[2] $end
$var parameter 3 {# j $end
$scope module m1 $end
$var wire 12 |# a [11:0] $end
$var wire 12 }# a1 [11:0] $end
$var wire 12 ~# a2 [11:0] $end
$var wire 12 !$ b [11:0] $end
$var wire 1 "$ c $end
$var wire 1 #$ d $end
$var wire 12 $$ e [11:0] $end
$upscope $end
$upscope $end
$scope begin mult_array[3] $end
$var parameter 3 %$ j $end
$scope module m1 $end
$var wire 12 &$ a [11:0] $end
$var wire 12 '$ a1 [11:0] $end
$var wire 12 ($ a2 [11:0] $end
$var wire 12 )$ b [11:0] $end
$var wire 1 *$ c $end
$var wire 1 +$ d $end
$var wire 12 ,$ e [11:0] $end
$upscope $end
$upscope $end
$scope begin mult_array[4] $end
$var parameter 4 -$ j $end
$scope module m1 $end
$var wire 12 .$ a [11:0] $end
$var wire 12 /$ a1 [11:0] $end
$var wire 12 0$ a2 [11:0] $end
$var wire 12 1$ b [11:0] $end
$var wire 1 2$ c $end
$var wire 1 3$ d $end
$var wire 12 4$ e [11:0] $end
$upscope $end
$upscope $end
$scope begin mult_array[5] $end
$var parameter 4 5$ j $end
$scope module m1 $end
$var wire 12 6$ a [11:0] $end
$var wire 12 7$ a1 [11:0] $end
$var wire 12 8$ a2 [11:0] $end
$var wire 12 9$ b [11:0] $end
$var wire 1 :$ c $end
$var wire 1 ;$ d $end
$var wire 12 <$ e [11:0] $end
$upscope $end
$upscope $end
$scope begin mult_array[6] $end
$var parameter 4 =$ j $end
$scope module m1 $end
$var wire 12 >$ a [11:0] $end
$var wire 12 ?$ a1 [11:0] $end
$var wire 12 @$ a2 [11:0] $end
$var wire 12 A$ b [11:0] $end
$var wire 1 B$ c $end
$var wire 1 C$ d $end
$var wire 12 D$ e [11:0] $end
$upscope $end
$upscope $end
$scope begin mult_array[7] $end
$var parameter 4 E$ j $end
$scope module m1 $end
$var wire 12 F$ a [11:0] $end
$var wire 12 G$ a1 [11:0] $end
$var wire 12 H$ a2 [11:0] $end
$var wire 12 I$ b [11:0] $end
$var wire 1 J$ c $end
$var wire 1 K$ d $end
$var wire 12 L$ e [11:0] $end
$upscope $end
$upscope $end
$scope module a8 $end
$var wire 1 ?# sus $end
$var wire 14 M$ b [13:0] $end
$var wire 14 N$ a [13:0] $end
$var parameter 32 O$ width $end
$var reg 15 P$ s [14:0] $end
$upscope $end
$upscope $end
$scope module rwldrv_u $end
$var wire 1 & cima $end
$var wire 1 ' clk $end
$var wire 1 ) rstn $end
$var wire 6 Q$ sel [5:0] $end
$var wire 96 R$ xin [95:0] $end
$var reg 8 S$ rwlb_row0 [7:0] $end
$var reg 8 T$ rwlb_row1 [7:0] $end
$scope begin genblk1[0] $end
$var parameter 2 U$ k $end
$upscope $end
$scope begin genblk1[1] $end
$var parameter 2 V$ k $end
$upscope $end
$scope begin genblk1[2] $end
$var parameter 3 W$ k $end
$upscope $end
$scope begin genblk1[3] $end
$var parameter 3 X$ k $end
$upscope $end
$scope begin genblk1[4] $end
$var parameter 4 Y$ k $end
$upscope $end
$scope begin genblk1[5] $end
$var parameter 4 Z$ k $end
$upscope $end
$scope begin genblk1[6] $end
$var parameter 4 [$ k $end
$upscope $end
$scope begin genblk1[7] $end
$var parameter 4 \$ k $end
$upscope $end
$upscope $end
$upscope $end
$upscope $end
$enddefinitions $end
$comment Show the parameter values. $end
$dumpall
b111 \$
b110 [$
b101 Z$
b100 Y$
b11 X$
b10 W$
b1 V$
b0 U$
b1110 O$
b111 E$
b110 =$
b101 5$
b100 -$
b11 %$
b10 {#
b1 s#
b0 k#
b1101 i#
b1 f#
b1101 d#
b0 a#
b1100 _#
b11 \#
b1100 Z#
b10 W#
b1100 U#
b1 R#
b1100 P#
b0 M#
b111 L#
b110 K#
b101 J#
b100 I#
b11 H#
b10 G#
b1 F#
b0 E#
b1110 =#
b111 3#
b110 +#
b101 ##
b100 y"
b11 q"
b10 i"
b1 a"
b0 Y"
b1101 W"
b1 T"
b1101 R"
b0 O"
b1100 M"
b11 J"
b1100 H"
b10 E"
b1100 C"
b1 @"
b1100 >"
b0 ;"
b111 :"
b110 9"
b101 8"
b100 7"
b11 6"
b10 5"
b1 4"
b0 3"
b10111 ,"
b10110 +"
b10101 *"
b10100 )"
b10011 ("
b10010 '"
b10001 &"
b10000 %"
b1111 $"
b1110 #"
b1101 ""
b1100 !"
b1011 ~
b1010 }
b1001 |
b1000 {
b111 z
b110 y
b101 x
b100 w
b11 v
b10 u
b1 t
b11011 j
b11011 \
$end
#0
$dumpvars
bx T$
bx S$
b0 R$
b0 Q$
bx P$
bx N$
bx M$
bx L$
xK$
xJ$
bx I$
bx H$
bx G$
bx F$
bx D$
xC$
xB$
bx A$
bx @$
bx ?$
bx >$
bx <$
x;$
x:$
bx 9$
bx 8$
bx 7$
bx 6$
bx 4$
x3$
x2$
bx 1$
bx 0$
bx /$
bx .$
bx ,$
x+$
x*$
bx )$
bx ($
bx '$
bx &$
bx $$
x#$
x"$
bx !$
bx ~#
bx }#
bx |#
bx z#
xy#
xx#
bx w#
bx v#
bx u#
bx t#
b0 r#
xq#
xp#
b111111111111 o#
b111111111111 n#
b111111111111 m#
b111111111111 l#
bx j#
bx h#
bx g#
bx e#
bx c#
bx b#
bx `#
bx ^#
bx ]#
bx [#
bx Y#
bx X#
bx V#
bx T#
bx S#
bx Q#
b0 O#
bx N#
bx D#
bx C#
bx B#
bx111111111111 A#
bx111111111111 @#
1?#
bx >#
bx <#
bx ;#
bx :#
x9#
x8#
bx 7#
bx 6#
bx 5#
bx 4#
bx 2#
x1#
x0#
bx /#
bx .#
bx -#
bx ,#
bx *#
x)#
x(#
bx '#
bx &#
bx %#
bx $#
bx "#
x!#
x~"
bx }"
bx |"
bx {"
bx z"
bx x"
xw"
xv"
bx u"
bx t"
bx s"
bx r"
bx p"
xo"
xn"
bx m"
bx l"
bx k"
bx j"
bx h"
xg"
xf"
bx e"
bx d"
bx c"
bx b"
b0 `"
x_"
x^"
b111111111111 ]"
b111111111111 \"
b111111111111 ["
b111111111111 Z"
bx X"
bx V"
bx U"
bx S"
bx Q"
bx P"
bx N"
bx L"
bx K"
bx I"
bx G"
bx F"
bx D"
bx B"
bx A"
bx ?"
b0 ="
bx <"
bx 2"
bx 1"
bx 0"
bx111111111111 /"
bx111111111111 ."
0-"
bx s
bx r
xq
xp
b0 o
bx n
bx m
b0 l
bx k
0i
b0 h
bx g
bx f
bx e
bx d
b0 c
bx b
b0 a
bx `
bx _
b0 ^
bx ]
1[
b0 Z
b0xxxxxxxxxxxxxxx Y
bx X
bx W
bx V
bx U
bx T
bx S
b0 R
b0 Q
b1011 P
bx111111111111 O
bx111111111111 N
b11111111 M
b0 L
bx111111111111 K
bx111111111111 J
b11111111 I
b0 H
bx111111111111 G
bx111111111111 F
bx111111111111 E
bx111111111111 D
b11111111 C
b11111111 B
b0 A
b11111111 @
b11111111 ?
b0 >
b0 =
bx <
b0 ;
b11111111 :
b11111111 9
bx 8
bx 7
bx 6
bx 5
bx 4
b0 3
bx111111111111 2
bx111111111111 1
bx111111111111 0
bx111111111111 /
b0 .
b0 -
bx ,
b0 +
0*
0)
0(
0'
0&
1%
b0 $
bx #
bx "
1!
$end
#5000
bx000000000000 X
1'
#10000
b0 7
b0 U
b0 D#
b0 P$
b0 8
b0 V
b0 2"
b0 >#
b0 j#
b0 M$
b0 e#
b0 N$
b0 X"
b0 ;#
b0 S"
b0 <#
b0 `#
b0 h#
b0 [#
b0 g#
b0 V#
b0 c#
b0 Q#
b0 b#
b0 N"
b0 V"
b0 I"
b0 U"
b0 D"
b0 Q"
b0 ?"
b0 P"
b0 ]#
b0 L$
b0 ^#
b0 D$
b0 X#
b0 <$
b0 Y#
b0 4$
b0 S#
b0 ,$
b0 T#
b0 $$
b0 N#
b0 z#
b0 K"
b0 :#
b0 L"
b0 2#
b0 F"
b0 *#
b0 G"
b0 "#
b0 A"
b0 x"
b0 B"
b0 p"
b0 <"
b0 h"
b111111111111 H$
b111111111111 @$
b111111111111 8$
b111111111111 0$
b111111111111 ($
b111111111111 ~#
b111111111111 v#
b111111111111 6#
b111111111111 .#
b111111111111 &#
b111111111111 |"
b111111111111 t"
b111111111111 l"
b111111111111 d"
1K$
1C$
1;$
13$
1+$
1#$
1y#
1q#
19#
11#
1)#
1!#
1w"
1o"
1g"
1_"
b11111111 4
b11111111 0"
b11111111 B#
b11111111 T$
b111111111111 G$
b111111111111 ?$
b111111111111 7$
b111111111111 /$
b111111111111 '$
b111111111111 }#
b111111111111 u#
b111111111111 5#
b111111111111 -#
b111111111111 %#
b111111111111 {"
b111111111111 s"
b111111111111 k"
b111111111111 c"
1J$
1B$
1:$
12$
1*$
1"$
1x#
1p#
18#
10#
1(#
1~"
1v"
1n"
1f"
1^"
b11111111 5
b11111111 1"
b11111111 C#
b11111111 S$
0'
b111111111111111111111111 #
b111111111111111111111111 ,
b111111111111111111111111 <
1)
#15000
0q
b0 e
b0 r
b0 m
b0 "
b0 6
b0 T
b0 `
b0 f
b0 s
0p
b0 n
b0 d
b0 k
b0 l#
b0 Z"
b0 o#
b0 ]"
b0 _
b0 b
b0 g
bx000000000000 1
bx000000000000 F
bx000000000000 K
bx000000000000 @#
bx000000000000 2
bx000000000000 G
bx000000000000 J
bx000000000000 ."
bx000000000000 /
bx000000000000 D
bx000000000000 O
bx000000000000 A#
bx000000000000 0
bx000000000000 E
bx000000000000 N
bx000000000000 /"
b0 S
b0 ]
b0 :
b0 ?
b0 B
b0 I
b1 9
b1 @
b1 C
b1 M
b111111111111111111111111 ;
b111111111111111111111111 >
b111111111111111111111111 A
b111111111111111111111111 H
b111111111111111111111111 L
0!
b1 3
b1 Q
b1 Q$
b0 X
b0 Y
b0 W
1'
b1 $
b1 -
b1 =
#20000
0'
b10 $
b10 -
b10 =
#25000
b0 !$
b0 m"
bx000000000000xxxxxxxxxxxx000000000000 /
bx000000000000xxxxxxxxxxxx000000000000 D
bx000000000000xxxxxxxxxxxx000000000000 O
bx000000000000xxxxxxxxxxxx000000000000 A#
bx000000000000xxxxxxxxxxxx000000000000 0
bx000000000000xxxxxxxxxxxx000000000000 E
bx000000000000xxxxxxxxxxxx000000000000 N
bx000000000000xxxxxxxxxxxx000000000000 /"
b10 3
b10 Q
b10 Q$
b100 9
b100 @
b100 C
b100 M
1'
b100 $
b100 -
b100 =
#30000
0'
b1000 $
b1000 -
b1000 =
#35000
b0 1$
b0 }"
bx000000000000xxxxxxxxxxxx000000000000xxxxxxxxxxxx000000000000 /
bx000000000000xxxxxxxxxxxx000000000000xxxxxxxxxxxx000000000000 D
bx000000000000xxxxxxxxxxxx000000000000xxxxxxxxxxxx000000000000 O
bx000000000000xxxxxxxxxxxx000000000000xxxxxxxxxxxx000000000000 A#
bx000000000000xxxxxxxxxxxx000000000000xxxxxxxxxxxx000000000000 0
bx000000000000xxxxxxxxxxxx000000000000xxxxxxxxxxxx000000000000 E
bx000000000000xxxxxxxxxxxx000000000000xxxxxxxxxxxx000000000000 N
bx000000000000xxxxxxxxxxxx000000000000xxxxxxxxxxxx000000000000 /"
b10000 9
b10000 @
b10000 C
b10000 M
b11 3
b11 Q
b11 Q$
1'
b10000 $
b10000 -
b10000 =
#40000
0'
b100000 $
b100000 -
b100000 =
#45000
b0 9$
b0 '#
bx000000000000000000000000xxxxxxxxxxxx000000000000xxxxxxxxxxxx000000000000 /
bx000000000000000000000000xxxxxxxxxxxx000000000000xxxxxxxxxxxx000000000000 D
bx000000000000000000000000xxxxxxxxxxxx000000000000xxxxxxxxxxxx000000000000 O
bx000000000000000000000000xxxxxxxxxxxx000000000000xxxxxxxxxxxx000000000000 A#
bx000000000000000000000000xxxxxxxxxxxx000000000000xxxxxxxxxxxx000000000000 0
bx000000000000000000000000xxxxxxxxxxxx000000000000xxxxxxxxxxxx000000000000 E
bx000000000000000000000000xxxxxxxxxxxx000000000000xxxxxxxxxxxx000000000000 N
bx000000000000000000000000xxxxxxxxxxxx000000000000xxxxxxxxxxxx000000000000 /"
b100 3
b100 Q
b100 Q$
b100000 9
b100000 @
b100000 C
b100000 M
1'
#50000
bx 7
bx U
bx D#
bx P$
bx 8
bx V
bx 2"
bx >#
bx j#
bx M$
bx e#
bx N$
bx X"
bx ;#
bx S"
bx <#
bx `#
bx h#
b1111111111111 [#
b1111111111111 g#
bx V#
bx c#
bx Q#
bx b#
bx N"
bx V"
b111111111111 I"
b111111111111 U"
bx D"
bx Q"
bx ?"
bx P"
bx ]#
bx L$
b111111111111 X#
b111111111111 <$
bx S#
bx ,$
bx N#
bx z#
bx K"
bx :#
b111111111111 F"
b111111111111 *#
bx A"
bx x"
bx <"
bx h"
bx H$
b0 8$
bx ($
bx v#
bx 6#
b0 &#
bx t"
bx d"
0K$
0;$
0+$
0y#
09#
0)#
0w"
0g"
b1010101 4
b1010101 0"
b1010101 B#
b1010101 T$
0'
b11110000111100001111000011110000111100001111000011110000111100001111000011110000111100001111 +
b11110000111100001111000011110000111100001111000011110000111100001111000011110000111100001111 .
b11110000111100001111000011110000111100001111000011110000111100001111000011110000111100001111 R$
1&
#55000
xq
bx e
bx r
bx m
bx "
bx 6
bx T
bx `
bx f
bx s
xp
bx n
bx d
bx k
b0 6$
b0 $#
bx _
bx b
bx g
bx000000000000xxxxxxxxxxxxxxxxxxxxxxxxxxxxxxxxxxxxxxxxxxxxxxxx000000000000 1
bx000000000000xxxxxxxxxxxxxxxxxxxxxxxxxxxxxxxxxxxxxxxxxxxxxxxx000000000000 F
bx000000000000xxxxxxxxxxxxxxxxxxxxxxxxxxxxxxxxxxxxxxxxxxxxxxxx000000000000 K
bx000000000000xxxxxxxxxxxxxxxxxxxxxxxxxxxxxxxxxxxxxxxxxxxxxxxx000000000000 @#
bx000000000000xxxxxxxxxxxxxxxxxxxxxxxxxxxxxxxxxxxxxxxxxxxxxxxx000000000000 2
bx000000000000xxxxxxxxxxxxxxxxxxxxxxxxxxxxxxxxxxxxxxxxxxxxxxxx000000000000 G
bx000000000000xxxxxxxxxxxxxxxxxxxxxxxxxxxxxxxxxxxxxxxxxxxxxxxx000000000000 J
bx000000000000xxxxxxxxxxxxxxxxxxxxxxxxxxxxxxxxxxxxxxxxxxxxxxxx000000000000 ."
bx S
bx ]
b0 9
b0 @
b0 C
b0 M
b100000 :
b100000 ?
b100000 B
b100000 I
b101 3
b101 Q
b101 Q$
bx000000000000 X
b0xxxxxxxxxxxxxxx Y
bx W
1'
#60000
0'
#65000
bx l
bx o
bx h
bx ^
bx c
b110 3
b110 Q
b110 Q$
bx a
1'
#70000
0'
#75000
b111 3
b111 Q
b111 Q$
1'
#80000
0'
